Mid-term exam | Data science for psychologists (Summer 2018)
…
Task 2: Hot and wet flights

library(nycflights13)
nycflights13::weather

## # A tibble: 26,130 x 15
##    origin  year month   day  hour  temp  dewp humid wind_dir wind_speed
##    <chr>  <dbl> <dbl> <int> <int> <dbl> <dbl> <dbl>    <dbl>      <dbl>
##  1 EWR    2013.    1.     1     0  37.0  21.9  54.0     230.      10.4
##  2 EWR    2013.    1.     1     1  37.0  21.9  54.0     230.      13.8
##  3 EWR    2013.    1.     1     2  37.9  21.9  52.1     230.      12.7
##  4 EWR    2013.    1.     1     3  37.9  23.0  54.5     230.      13.8
##  5 EWR    2013.    1.     1     4  37.9  24.1  57.0     240.      15.0
##  6 EWR    2013.    1.     1     6  39.0  26.1  59.4     270.      10.4
##  7 EWR    2013.    1.     1     7  39.0  27.0  61.6     250.       8.06
##  8 EWR    2013.    1.     1     8  39.0  28.0  64.4     240.      11.5
##  9 EWR    2013.    1.     1     9  39.9  28.0  62.2     250.      12.7
## 10 EWR    2013.    1.     1    10  39.0  28.0  64.4     260.      12.7
## # ... with 26,120 more rows, and 5 more variables: wind_gust <dbl>,
## #   precip <dbl>, pressure <dbl>, visib <dbl>, time_hour <dttm>
…
  ##Answer: EWR: 8708, JFK: 8711, LGA: 8711

#####################################################################

## (d): Compute a new variable temp_dc that provides the temperature (in degrees Celsius) that corresponds to temp (in degrees Fahrenheit).

#Hints: The formula for conversion from Fahrenheit (degrees F) to Celsius (degrees C) is: C=(F-32) 5/9.

#Add your new temp_dc variable to a new dataset wt_2 and re-arrange its columns so that your new temp_dc variable appears next to temp. (2 points)

(wt_2 <- wt %>%
  mutate(temp_dc = ((temp-32)* 5/9)) %>%
  select(temp, temp_dc, everything()))

## # A tibble: 26,130 x 16
##     temp temp_dc origin  year month   day  hour  dewp humid wind_dir
##    <dbl>   <dbl> <chr>  <dbl> <dbl> <int> <int> <dbl> <dbl>    <dbl>
##  1  37.0    2.80 EWR    2013.    1.     1     0  21.9  54.0     230.
##  2  37.0    2.80 EWR    2013.    1.     1     1  21.9  54.0     230.
##  3  37.9    3.30 EWR    2013.    1.     1     2  21.9  52.1     230.
##  4  37.9    3.30 EWR    2013.    1.     1     3  23.0  54.5     230.
##  5  37.9    3.30 EWR    2013.    1.     1     4  24.1  57.0     240.
##  6  39.0    3.90 EWR    2013.    1.     1     6  26.1  59.4     270.
##  7  39.0    3.90 EWR    2013.    1.     1     7  27.0  61.6     250.
##  8  39.0    3.90 EWR    2013.    1.     1     8  28.0  64.4     240.
##  9  39.9    4.40 EWR    2013.    1.     1     9  28.0  62.2     250.
## 10  39.0    3.90 EWR    2013.    1.     1    10  28.0  64.4     260.
## # ... with 26,120 more rows, and 6 more variables: wind_speed <dbl>,
## #   wind_gust <dbl>, precip <dbl>, pressure <dbl>, visib <dbl>,
## #   time_hour <dttm>

#####################################################################

##(e): When only considering JFK airport: What are the 3 (different) dates with the (a) coldest and (b) hottest temperatures at this airport?

  #Report the 3 dates and their extreme temperatures (in degrees Celsius) for (a) and (b). (2 points)

wt_2 %>%
  filter(origin == "JFK") %>%
  arrange(temp_dc)

## # A tibble: 8,711 x 16
##     temp temp_dc origin  year month   day  hour   dewp humid wind_dir
##    <dbl>   <dbl> <chr>  <dbl> <dbl> <int> <int>  <dbl> <dbl>    <dbl>
##  1  12.0   -11.1 JFK    2013.    1.    23     9  -7.06  41.3     280.
##  2  12.0   -11.1 JFK    2013.    1.    23    10  -5.08  45.4     280.
##  3  12.0   -11.1 JFK    2013.    1.    23    11  -5.08  45.4     290.
##  4  12.9   -10.6 JFK    2013.    1.    23     6  -9.04  36.0     290.
##  5  12.9   -10.6 JFK    2013.    1.    23     7  -7.96  38.0     290.
##  6  12.9   -10.6 JFK    2013.    1.    23     8  -7.06  39.7     290.
##  7  12.9   -10.6 JFK    2013.    1.    23    12  -4.00  46.0     280.
##  8  12.9   -10.6 JFK    2013.    1.    24     6  -2.02  50.5      40.
##  9  13.1   -10.5 JFK    2013.    5.     9     2  12.0   95.3      80.
## 10  14.0   -10.0 JFK    2013.    1.    23     4  -9.94  32.9     300.
## # ... with 8,701 more rows, and 6 more variables: wind_speed <dbl>,
## #   wind_gust <dbl>, precip <dbl>, pressure <dbl>, visib <dbl>,
## #   time_hour <dttm>

  ##Answer: Three Coldest Temperatures: -11.1 degrees Celsius on 23rd January 2013; -10.6 degrees Celsius on 24th January 2013; -10.5 degrees Celsius on 9th May 2013

wt_2 %>%
  filter(origin == "JFK") %>%
  arrange(desc(temp_dc))

## # A tibble: 8,711 x 16
##     temp temp_dc origin  year month   day  hour  dewp humid wind_dir
##    <dbl>   <dbl> <chr>  <dbl> <dbl> <int> <int> <dbl> <dbl>    <dbl>
##  1  98.1    36.7 JFK    2013.    7.    18    16  66.9  36.4     260.
##  2  97.0    36.1 JFK    2013.    7.    18    15  68.0  39.0     330.
##  3  97.0    36.1 JFK    2013.    7.    18    18  71.1  43.4     220.
##  4  96.1    35.6 JFK    2013.    7.    16    18  62.1  32.6     360.
##  5  96.1    35.6 JFK    2013.    7.    18    14  66.9  38.7     350.
##  6  96.1    35.6 JFK    2013.    7.    18    17  71.1  44.6     250.
##  7  95.0    35.0 JFK    2013.    7.    15    20  68.0  41.5     360.
##  8  95.0    35.0 JFK    2013.    7.    16    17  60.1  31.4      20.
##  9  95.0    35.0 JFK    2013.    7.    17    15  64.9  37.3     350.
## 10  95.0    35.0 JFK    2013.    7.    20    20  69.1  43.1     260.
## # ... with 8,701 more rows, and 6 more variables: wind_speed <dbl>,
## #   wind_gust <dbl>, precip <dbl>, pressure <dbl>, visib <dbl>,
## #   time_hour <dttm>

##Answer: Three Hottest Temperatures: 36.7 degrees Celsius on 18th July 2013; 35.6 degrees Celsius on 16th July 2013; 35.0 degrees Celsius on 15th July 2013

#####################################################################

##(f): Plot the amount of mean precipitation by month for each of the 3 airports (origin). (2 points)

#Hint: First use dplyr to compute a table of means (by origin and month). Then use ggplot to draw a line or bar plot of the means.

(plot <- wt_2 %>%
  group_by(origin, month) %>%
  summarise(mean_precip = (mean(precip, na.rm = TRUE))))

## # A tibble: 36 x 3
## # Groups:   origin [?]
##    origin month mean_precip
##    <chr>  <dbl>       <dbl>
##  1 EWR       1.    0.00363
##  2 EWR       2.    0.00413
##  3 EWR       3.    0.00260
##  4 EWR       4.    0.00147
##  5 EWR       5.    0.00371
##  6 EWR       6.    0.00711
##  7 EWR       7.    0.00224
##  8 EWR       8.    0.00358
##  9 EWR       9.    0.00131
## 10 EWR      10.    0.000204
## # ... with 26 more rows
…
  ##Answer: The percentage of NAs is 1,083%.

#####################################################################

## (b): Split the birth date (bdate) variable into 3 separate variables (byear, bmonth, and bday) that denote the year, month, and day of each participants birth. (1 point)

#Hints: Use tidyr::separate for this task, but check the type of your new variables (and use the convert argument to ensure that they are numeric).

(data_2 <- data %>%
  separate(bdate, into = c("byear", "bmonth", "bday"), sep = "-", convert = TRUE))

## # A tibble: 1,000 x 14
##    name  gender byear bmonth  bday bweekday height blood_type bnt_1 bnt_2
##    <chr> <chr>  <int>  <int> <int> <chr>     <int> <chr>      <int> <int>
##  1 I.G.  male    1968     12    14 Sat         169 O+             1     0
##  2 O.B.  male    1974      4    10 Wed         181 O+             1     1
##  3 M.M.  male    1987      9    28 Mon         183 A-             0     1
##  4 V.J.  female  1978      2    15 Wed         161 A+             0     0
##  5 O.E.  male    1985      5    18 Sat         164 A-             1     0
##  6 Q.W.  male    1968      3     1 Fri         172 A+             1     1
##  7 H.K.  male    1994      4    27 Wed         157 B-             0     1
##  8 T.R.  female  1961      6     5 Mon         167 A+             1     0
##  9 F.J.  male    1983     10     1 Sat         158 O+             0     0
## 10 J.R.  female  1941     12    29 Mon         157 O+             1     1
## # ... with 990 more rows, and 4 more variables: bnt_3 <int>, bnt_4 <int>,
## #   g_iq <int>, s_iq <int>

#####################################################################

## (c): Create a new variable summer_born that is TRUE when a participant was born in summer (defined as April to September) and FALSE when a person was born in winter (October to March). (1 point)

(data_2 <- data_2 %>%
  mutate(summer = bmonth == 4 | bmonth == 5 | bmonth == 6 | bmonth == 7 | bmonth == 8 | bmonth == 9))

## # A tibble: 1,000 x 15
##    name  gender byear bmonth  bday bweekday height blood_type bnt_1 bnt_2
##    <chr> <chr>  <int>  <int> <int> <chr>     <int> <chr>      <int> <int>
##  1 I.G.  male    1968     12    14 Sat         169 O+             1     0
##  2 O.B.  male    1974      4    10 Wed         181 O+             1     1
##  3 M.M.  male    1987      9    28 Mon         183 A-             0     1
##  4 V.J.  female  1978      2    15 Wed         161 A+             0     0
##  5 O.E.  male    1985      5    18 Sat         164 A-             1     0
##  6 Q.W.  male    1968      3     1 Fri         172 A+             1     1
##  7 H.K.  male    1994      4    27 Wed         157 B-             0     1
##  8 T.R.  female  1961      6     5 Mon         167 A+             1     0
##  9 F.J.  male    1983     10     1 Sat         158 O+             0     0
## 10 J.R.  female  1941     12    29 Mon         157 O+             1     1
## # ... with 990 more rows, and 5 more variables: bnt_3 <int>, bnt_4 <int>,
## #   g_iq <int>, s_iq <int>, summer <lgl>
…
#Hints: Inspect the type of your cohort variable (by typeof(my_data$cohort)). Depending on your intended plot, you may have to turn this variable into a factor by using as.factor(my_data$cohort). The factor has discrete levels, while the cohort variable may have been continuous (numeric).

(C) Assessing DVs:

## (h): Compute the aggregate BNT score as the sum of all four bnt_i values (i.e., a value varying from 0 to 4) for each participant. How many missing BNT values are there? (1 point)

(data_bnt_score <- data %>%
  mutate(bnt_score = (bnt_1 + bnt_2 + bnt_3 + bnt_4), na.rm = TRUE) %>%
  select(bnt_score, bnt_1, bnt_2, bnt_3, bnt_4, everything()))

## # A tibble: 1,000 x 14
##    bnt_score bnt_1 bnt_2 bnt_3 bnt_4 name  gender bdate      bweekday
##        <int> <int> <int> <int> <int> <chr> <chr>  <date>     <chr>
##  1         2     1     0     0     1 I.G.  male   1968-12-14 Sat    
##  2        NA     1     1     1    NA O.B.  male   1974-04-10 Wed    
##  3         1     0     1     0     0 M.M.  male   1987-09-28 Mon    
##  4         0     0     0     0     0 V.J.  female 1978-02-15 Wed    
##  5         1     1     0     0     0 O.E.  male   1985-05-18 Sat    
##  6         3     1     1     1     0 Q.W.  male   1968-03-01 Fri    
##  7        NA     0     1    NA     0 H.K.  male   1994-04-27 Wed    
##  8         2     1     0     1     0 T.R.  female 1961-06-05 Mon    
##  9         0     0     0     0     0 F.J.  male   1983-10-01 Sat    
## 10         3     1     1     0     1 J.R.  female 1941-12-29 Mon    
## # ... with 990 more rows, and 5 more variables: height <int>,
## #   blood_type <chr>, g_iq <int>, s_iq <int>, na.rm <lgl>
…
View(Titanic)
str(Titanic)

##  table [1:4, 1:2, 1:2, 1:2] 0 0 35 0 0 0 17 0 118 154 ...
##  - attr(*, "dimnames")=List of 4
##   ..$ Class   : chr [1:4] "1st" "2nd" "3rd" "Crew"
##   ..$ Sex     : chr [1:2] "Male" "Female"
##   ..$ Age     : chr [1:2] "Child" "Adult"
##   ..$ Survived: chr [1:2] "No" "Yes"

titanic <- as.tibble(Titanic)

titanic

## # A tibble: 32 x 5
##    Class Sex    Age   Survived     n
##    <chr> <chr>  <chr> <chr>    <dbl>
##  1 1st   Male   Child No          0.
##  2 2nd   Male   Child No          0.
##  3 3rd   Male   Child No         35.
##  4 Crew  Male   Child No          0.
##  5 1st   Female Child No          0.
##  6 2nd   Female Child No          0.
##  7 3rd   Female Child No         17.
##  8 Crew  Female Child No          0.
##  9 1st   Male   Adult No        118.
## 10 2nd   Male   Adult No        154.
## # ... with 22 more rows
…
