Data Science for Psychologists (ds4psy)
…
v_sort <- 1:N  # rev(sort(v_sort))

set.seed(123)
# v_rand <- runif(n = N, 0, 1)
v_rand <- sample(v_sort, N)  # random permutation of v_sort

tb <- tibble(y = rep(1:n_x, each = n_y),
             x = rep(1:n_y, times = n_x),
             rand = v_rand,
             sort = v_sort)
tb
#> # A tibble: 64 x 4
#>        y     x  rand  sort
#>    <int> <int> <int> <int>
#>  1     1     1    19     1
#>  2     1     2    50     2
#>  3     1     3    26     3
#>  4     1     4    54     4
#>  5     1     5    57     5
#>  6     1     6     3     6
#>  7     1     7    31     7
#>  8     1     8    51     8
#>  9     2     1    58     9
#> 10     2     2    62    10
#> # … with 54 more rows
…
