Exploring data (EDA, ds4psy)
…
- the dimensions of your data, 
- the types of your variables (columns), and 
- the semantics of your observations (rows). 

Here, we first inspect the original data file, which we read in from http://rpository.com/ds4psy/data/posPsy_AHI_CESD.csv above:

df <- AHI_CESD  # copy the data

dim(df)  # 992 cases x 50 variables
#> [1] 992  50
df <- as_tibble(df)  # (in case df isn't a tibble already)

# Get an initial overview: 
df
#> # A tibble: 992 x 50
#>       id occasion elapsed.days intervention ahi01 ahi02 ahi03 ahi04 ahi05
#>    <int>    <int>        <dbl>        <int> <int> <int> <int> <int> <int>
#>  1     1        0         0               4     2     3     2     3     3
#>  2     1        1        11.8             4     3     3     4     3     3
#>  3     2        0         0               1     3     4     3     4     2
#>  4     2        1         8.02            1     3     4     4     4     3
#>  5     2        2        14.3             1     3     4     4     4     3
#>  6     2        3        32.0             1     3     4     4     4     4
#>  7     2        4        92.2             1     3     3     2     3     3
#>  8     2        5       182.              1     3     3     3     4     2
#>  9     3        0         0               4     3     3     2     4     2
#> 10     3        2        16.4             4     3     3     3     4     4
#> # ... with 982 more rows, and 41 more variables: ahi06 <int>, ahi07 <int>,
#> #   ahi08 <int>, ahi09 <int>, ahi10 <int>, ahi11 <int>, ahi12 <int>,
#> #   ahi13 <int>, ahi14 <int>, ahi15 <int>, ahi16 <int>, ahi17 <int>,
#> #   ahi18 <int>, ahi19 <int>, ahi20 <int>, ahi21 <int>, ahi22 <int>,
#> #   ahi23 <int>, ahi24 <int>, cesd01 <int>, cesd02 <int>, cesd03 <int>,
#> #   cesd04 <int>, cesd05 <int>, cesd06 <int>, cesd07 <int>, cesd08 <int>,
#> #   cesd09 <int>, cesd10 <int>, cesd11 <int>, cesd12 <int>, cesd13 <int>,
#> #   cesd14 <int>, cesd15 <int>, cesd16 <int>, cesd17 <int>, cesd18 <int>,
#> #   cesd19 <int>, cesd20 <int>, ahiTotal <int>, cesdTotal <int>
…
# This does the trick, but looks messy. 
# A cleaner solution uses 2 steps:

# (1) Summary table of grouped counts: 
occ_by_id <- df %>%
  group_by(id) %>%
  count()
occ_by_id
#> # A tibble: 295 x 2
#> # Groups:   id [295]
#>       id     n
#>    <int> <int>
#>  1     1     2
#>  2     2     6
#>  3     3     2
#>  4     4     4
#>  5     5     5
#>  6     6     3
#>  7     7     1
#>  8     8     6
#>  9     9     1
#> 10    10     1
#> # ... with 285 more rows
…
# (c) more efficient solution:
occ_by_id_2 <- occ_by_id %>% 
  arrange(n)
occ_by_id_2
#> # A tibble: 295 x 2
#> # Groups:   id [295]
#>       id     n
#>    <int> <int>
#>  1     7     1
#>  2     9     1
#>  3    10     1
#>  4    15     1
#>  5    16     1
#>  6    17     1
#>  7    20     1
#>  8    23     1
#>  9    25     1
#> 10    26     1
#> # ... with 285 more rows

## (+) Add rownames (1:n) as a column:
# occ_by_id_2 <- rownames_to_column(occ_by_id_2)  # rowname is character variable!

## (+) Add a variable row that contains index of current row:
occ_by_id_2$row <- 1:nrow(occ_by_id_2)
occ_by_id_2
#> # A tibble: 295 x 3
#> # Groups:   id [295]
#>       id     n   row
#>    <int> <int> <int>
#>  1     7     1     1
#>  2     9     1     2
#>  3    10     1     3
#>  4    15     1     4
#>  5    16     1     5
#>  6    17     1     6
#>  7    20     1     7
#>  8    23     1     8
#>  9    25     1     9
#> 10    26     1    10
#> # ... with 285 more rows
…
nrow(posPsy_p_info)  # 295 participants
#> [1] 295
id_by_occ$n[1]       # 295 participants counted (as n) in 1st line of id_by_occ
#> [1] 295
nrow(posPsy_p_info) == id_by_occ$n[1]  # TRUE (qed)
#> [1] TRUE

To answer the second question, we can count the number of lines in df per id and occasion and then check whether any unexpected values (different from 1, i.e., n != 1) occur:

# Summary table (with dplyr):
id_occ <- df %>%
  group_by(id, occasion) %>%
  count()
id_occ
#> # A tibble: 990 x 3
#> # Groups:   id, occasion [990]
#>       id occasion     n
#>    <int>    <int> <int>
#>  1     1        0     1
#>  2     1        1     1
#>  3     2        0     1
#>  4     2        1     1
#>  5     2        2     1
#>  6     2        3     1
#>  7     2        4     1
#>  8     2        5     1
#>  9     3        0     1
#> 10     3        2     1
#> # ... with 980 more rows
…
Most research hypotheses involve relationships or measures of correspondence between 2 or more variables. This brings us to another principle:

Principle 8: Inspect relationships between (continuous or categorical) variables.

Scatterplots

A scatterplot shows the relationship between 2 (typically continuous) variables:

## Data:
df <- AHI_CESD
dim(df)
#> [1] 992  50
df
#> # A tibble: 992 x 50
#>       id occasion elapsed.days intervention ahi01 ahi02 ahi03 ahi04 ahi05
#>    <int>    <int>        <dbl>        <int> <int> <int> <int> <int> <int>
#>  1     1        0         0               4     2     3     2     3     3
#>  2     1        1        11.8             4     3     3     4     3     3
#>  3     2        0         0               1     3     4     3     4     2
#>  4     2        1         8.02            1     3     4     4     4     3
#>  5     2        2        14.3             1     3     4     4     4     3
#>  6     2        3        32.0             1     3     4     4     4     4
#>  7     2        4        92.2             1     3     3     2     3     3
#>  8     2        5       182.              1     3     3     3     4     2
#>  9     3        0         0               4     3     3     2     4     2
#> 10     3        2        16.4             4     3     3     3     4     4
#> # ... with 982 more rows, and 41 more variables: ahi06 <int>, ahi07 <int>,
#> #   ahi08 <int>, ahi09 <int>, ahi10 <int>, ahi11 <int>, ahi12 <int>,
#> #   ahi13 <int>, ahi14 <int>, ahi15 <int>, ahi16 <int>, ahi17 <int>,
#> #   ahi18 <int>, ahi19 <int>, ahi20 <int>, ahi21 <int>, ahi22 <int>,
#> #   ahi23 <int>, ahi24 <int>, cesd01 <int>, cesd02 <int>, cesd03 <int>,
#> #   cesd04 <int>, cesd05 <int>, cesd06 <int>, cesd07 <int>, cesd08 <int>,
#> #   cesd09 <int>, cesd10 <int>, cesd11 <int>, cesd12 <int>, cesd13 <int>,
#> #   cesd14 <int>, cesd15 <int>, cesd16 <int>, cesd17 <int>, cesd18 <int>,
#> #   cesd19 <int>, cesd20 <int>, ahiTotal <int>, cesdTotal <int>
…
