Functions, with WPA09 and solutions (ds4psy)
…
A solution using only base-R functions (here: order):

# Data:
sw <- dplyr::starwars

# (a) specific solution for sorting data:  
# using order() function and a variable name:
sw[order(-sw$height), ]
#> # A tibble: 87 x 13
#>    name  height  mass hair_color skin_color eye_color birth_year gender
#>    <chr>  <int> <dbl> <chr>      <chr>      <chr>          <dbl> <chr> 
#>  1 Yara…    264    NA none       white      yellow          NA   male  
#>  2 Tarf…    234   136 brown      brown      blue            NA   male  
#>  3 Lama…    229    88 none       grey       black           NA   male  
#>  4 Chew…    228   112 brown      unknown    blue           200   male  
#>  5 Roos…    224    82 none       grey       orange          NA   male  
#>  6 Grie…    216   159 none       brown, wh… green, y…       NA   male  
#>  7 Taun…    213    NA none       grey       black           NA   female
#>  8 Rugo…    206    NA none       green      orange          NA   male  
#>  9 Tion…    206    80 none       grey       black           NA   male  
#> 10 Dart…    202   136 none       white      yellow          41.9 male  
#> # … with 77 more rows, and 5 more variables: homeworld <chr>,
#> #   species <chr>, films <list>, vehicles <list>, starships <list>
…
sw[ , 2]  # is the same vector (as column of sw)
#> # A tibble: 87 x 1
#>    height
#>     <int>
#>  1    172
#>  2    167
#>  3     96
#>  4    202
#>  5    150
#>  6    178
#>  7    165
#>  8     97
#>  9    183
#> 10    182
#> # … with 77 more rows

# (b) specific solution for sorting data: 
# using order() function and the variable's column number:
sw[order(-sw[ , 2]), ]
#> # A tibble: 87 x 13
#>    name  height  mass hair_color skin_color eye_color birth_year gender
#>    <chr>  <int> <dbl> <chr>      <chr>      <chr>          <dbl> <chr> 
#>  1 Yara…    264    NA none       white      yellow          NA   male  
#>  2 Tarf…    234   136 brown      brown      blue            NA   male  
#>  3 Lama…    229    88 none       grey       black           NA   male  
#>  4 Chew…    228   112 brown      unknown    blue           200   male  
#>  5 Roos…    224    82 none       grey       orange          NA   male  
#>  6 Grie…    216   159 none       brown, wh… green, y…       NA   male  
#>  7 Taun…    213    NA none       grey       black           NA   female
#>  8 Rugo…    206    NA none       green      orange          NA   male  
#>  9 Tion…    206    80 none       grey       black           NA   male  
#> 10 Dart…    202   136 none       white      yellow          41.9 male  
#> # … with 77 more rows, and 5 more variables: homeworld <chr>,
#> #   species <chr>, films <list>, vehicles <list>, starships <list>
…
What happens in your top_3 function when col_nr refers to a character variable (e.g., dplyr::starwars[ , 1])? Adjust the function so that its result varies by the type of the variable designated by the col_nr argument:

if the corresponding variable is a character variable, sort the data in ascending order (alphabetically);

if the corresponding variable is a numeric variable, sort the data in descending order (from high to low).

Solution

Adjusted tidyverse solution:

# What happens?
top_3(sw, 1)  # character variables are ordered against alphabetical sequence
#> # A tibble: 3 x 13
#>   name  height  mass hair_color skin_color eye_color birth_year gender
#>   <chr>  <int> <dbl> <chr>      <chr>      <chr>          <dbl> <chr> 
#> 1 Zam …    168    55 blonde     fair, gre… yellow            NA female
#> 2 Yoda      66    17 white      green      brown            896 male  
#> 3 Yara…    264    NA none       white      yellow            NA male  
#> # … with 5 more variables: homeworld <chr>, species <chr>, films <list>,
#> #   vehicles <list>, starships <list>

# Preparation: How can we determine the variable type?
# character variable: 
sw$name   # a vector name in sw
#>  [1] "Luke Skywalker"        "C-3PO"                
#>  [3] "R2-D2"                 "Darth Vader"          
#>  [5] "Leia Organa"           "Owen Lars"            
#>  [7] "Beru Whitesun lars"    "R5-D4"                
#>  [9] "Biggs Darklighter"     "Obi-Wan Kenobi"       
#> [11] "Anakin Skywalker"      "Wilhuff Tarkin"       
#> [13] "Chewbacca"             "Han Solo"             
#> [15] "Greedo"                "Jabba Desilijic Tiure"
#> [17] "Wedge Antilles"        "Jek Tono Porkins"     
#> [19] "Yoda"                  "Palpatine"            
#> [21] "Boba Fett"             "IG-88"                
#> [23] "Bossk"                 "Lando Calrissian"     
#> [25] "Lobot"                 "Ackbar"               
#> [27] "Mon Mothma"            "Arvel Crynyd"         
#> [29] "Wicket Systri Warrick" "Nien Nunb"            
#> [31] "Qui-Gon Jinn"          "Nute Gunray"          
#> [33] "Finis Valorum"         "Jar Jar Binks"        
#> [35] "Roos Tarpals"          "Rugor Nass"           
#> [37] "Ric Olié"              "Watto"                
#> [39] "Sebulba"               "Quarsh Panaka"        
#> [41] "Shmi Skywalker"        "Darth Maul"           
#> [43] "Bib Fortuna"           "Ayla Secura"          
#> [45] "Dud Bolt"              "Gasgano"              
#> [47] "Ben Quadinaros"        "Mace Windu"           
#> [49] "Ki-Adi-Mundi"          "Kit Fisto"            
#> [51] "Eeth Koth"             "Adi Gallia"           
#> [53] "Saesee Tiin"           "Yarael Poof"          
#> [55] "Plo Koon"              "Mas Amedda"           
#> [57] "Gregar Typho"          "Cordé"                
#> [59] "Cliegg Lars"           "Poggle the Lesser"    
#> [61] "Luminara Unduli"       "Barriss Offee"        
#> [63] "Dormé"                 "Dooku"                
#> [65] "Bail Prestor Organa"   "Jango Fett"           
#> [67] "Zam Wesell"            "Dexter Jettster"      
#> [69] "Lama Su"               "Taun We"              
#> [71] "Jocasta Nu"            "Ratts Tyerell"        
#> [73] "R4-P17"                "Wat Tambor"           
#> [75] "San Hill"             
#>  [ reached getOption("max.print") -- omitted 12 entries ]
sw[ , 1]  # 1st column of sw
#> # A tibble: 87 x 1
#>    name              
#>    <chr>             
#>  1 Luke Skywalker    
#>  2 C-3PO             
#>  3 R2-D2             
#>  4 Darth Vader       
#>  5 Leia Organa       
#>  6 Owen Lars         
#>  7 Beru Whitesun lars
#>  8 R5-D4             
#>  9 Biggs Darklighter 
#> 10 Obi-Wan Kenobi    
#> # … with 77 more rows
…
sw[ , 2]   # 2nd column of sw
#> # A tibble: 87 x 1
#>    height
#>     <int>
#>  1    172
#>  2    167
#>  3     96
#>  4    202
#>  5    150
#>  6    178
#>  7    165
#>  8     97
#>  9    183
#> 10    182
#> # … with 77 more rows
…
Adjusted base-R solution:

# What happens?
# top_3_base(sw, 1)  # would yield an error, as order does not allow "-" for character variables.

# (a) specific solution for sorting data:  
# using order() function and a variable name:
sw[order(-sw$height), ]
#> # A tibble: 87 x 13
#>    name  height  mass hair_color skin_color eye_color birth_year gender
#>    <chr>  <int> <dbl> <chr>      <chr>      <chr>          <dbl> <chr> 
#>  1 Yara…    264    NA none       white      yellow          NA   male  
#>  2 Tarf…    234   136 brown      brown      blue            NA   male  
#>  3 Lama…    229    88 none       grey       black           NA   male  
#>  4 Chew…    228   112 brown      unknown    blue           200   male  
#>  5 Roos…    224    82 none       grey       orange          NA   male  
#>  6 Grie…    216   159 none       brown, wh… green, y…       NA   male  
#>  7 Taun…    213    NA none       grey       black           NA   female
#>  8 Rugo…    206    NA none       green      orange          NA   male  
#>  9 Tion…    206    80 none       grey       black           NA   male  
#> 10 Dart…    202   136 none       white      yellow          41.9 male  
#> # … with 77 more rows, and 5 more variables: homeworld <chr>,
#> #   species <chr>, films <list>, vehicles <list>, starships <list>

# as above: 
typeof(unlist(sw[ , 1]))  # "character"
#> [1] "character"
typeof(unlist(sw[ , 2]))  # "integer"
#> [1] "integer"
typeof(unlist(sw[ , 3]))  # "double"
#> [1] "double"

sw[order(sw$name), ] # works
#> # A tibble: 87 x 13
#>    name  height  mass hair_color skin_color eye_color birth_year gender
#>    <chr>  <int> <dbl> <chr>      <chr>      <chr>          <dbl> <chr> 
#>  1 Ackb…    180    83 none       brown mot… orange          41   male  
#>  2 Adi …    184    50 none       dark       blue            NA   female
#>  3 Anak…    188    84 blond      fair       blue            41.9 male  
#>  4 Arve…     NA    NA brown      fair       brown           NA   male  
#>  5 Ayla…    178    55 none       blue       hazel           48   female
#>  6 Bail…    191    NA black      tan        brown           67   male  
#>  7 Barr…    166    50 black      yellow     blue            40   female
#>  8 BB8       NA    NA none       none       black           NA   none  
#>  9 Ben …    163    65 none       grey, gre… orange          NA   male  
#> 10 Beru…    165    75 brown      light      blue            47   female
#> # … with 77 more rows, and 5 more variables: homeworld <chr>,
#> #   species <chr>, films <list>, vehicles <list>, starships <list>
…
# BUT: 
sw[ , 1] # is a tibble
#> # A tibble: 87 x 1
#>    name              
#>    <chr>             
#>  1 Luke Skywalker    
#>  2 C-3PO             
#>  3 R2-D2             
#>  4 Darth Vader       
#>  5 Leia Organa       
#>  6 Owen Lars         
#>  7 Beru Whitesun lars
#>  8 R5-D4             
#>  9 Biggs Darklighter 
#> 10 Obi-Wan Kenobi    
#> # … with 77 more rows
…
sw[order(as_vector(sw[ , 1])), ] # works
#> # A tibble: 87 x 13
#>    name  height  mass hair_color skin_color eye_color birth_year gender
#>    <chr>  <int> <dbl> <chr>      <chr>      <chr>          <dbl> <chr> 
#>  1 Ackb…    180    83 none       brown mot… orange          41   male  
#>  2 Adi …    184    50 none       dark       blue            NA   female
#>  3 Anak…    188    84 blond      fair       blue            41.9 male  
#>  4 Arve…     NA    NA brown      fair       brown           NA   male  
#>  5 Ayla…    178    55 none       blue       hazel           48   female
#>  6 Bail…    191    NA black      tan        brown           67   male  
#>  7 Barr…    166    50 black      yellow     blue            40   female
#>  8 BB8       NA    NA none       none       black           NA   none  
#>  9 Ben …    163    65 none       grey, gre… orange          NA   male  
#> 10 Beru…    165    75 brown      light      blue            47   female
#> # … with 77 more rows, and 5 more variables: homeworld <chr>,
#> #   species <chr>, films <list>, vehicles <list>, starships <list>
…
#>   <chr>  <int> <dbl> <chr>      <chr>      <chr>          <dbl> <chr> 
#> 1 Yoda      66    17 white      green      brown            896 male  
#> # … with 5 more variables: homeworld <chr>, species <chr>, films <list>,
#> #   vehicles <list>, starships <list>
# AND:
top_n(sw, 1, n = 2)   # top n = 2 names in alphabetical order
#> # A tibble: 2 x 13
#>   name  height  mass hair_color skin_color eye_color birth_year gender
#>   <chr>  <int> <dbl> <chr>      <chr>      <chr>          <dbl> <chr> 
#> 1 Ackb…    180    83 none       brown mot… orange            41 male  
#> 2 Adi …    184    50 none       dark       blue              NA female
#> # … with 5 more variables: homeworld <chr>, species <chr>, films <list>,
#> #   vehicles <list>, starships <list>
top_n(sw, 9, n = 999) # message and top n = 87 homeworlds 
#> # A tibble: 87 x 13
#>    name  height  mass hair_color skin_color eye_color birth_year gender
#>    <chr>  <int> <dbl> <chr>      <chr>      <chr>          <dbl> <chr> 
#>  1 Leia…    150    49 brown      light      brown             19 female
#>  2 Bail…    191    NA black      tan        brown             67 male  
#>  3 Raym…    188    79 brown      light      brown             NA male  
#>  4 Ratt…     79    15 none       grey, blue unknown           NA male  
#>  5 Lobot    175    79 none       light      blue              37 male  
#>  6 Jek …    180   110 brown      fair       blue              NA male  
#>  7 Nute…    191    90 none       mottled g… red               NA male  
#>  8 Ki-A…    198    82 white      pale       yellow            92 male  
#>  9 Mas …    196    NA none       blue       blue              NA male  
#> 10 Mon …    150    NA auburn     fair       blue              48 female
#> # … with 77 more rows, and 5 more variables: homeworld <chr>,
#> #   species <chr>, films <list>, vehicles <list>, starships <list>
…
