Tidy data, with solutions (ds4psy)
…
Exercise C:

A posPsy tibble reloaded

In Exercise 3 of WPA05 of our essentials on tibbles you created a tibble of mean depression scores (my_tbl and my_tbl_2) in 2 different ways (by entering the data directly into R with tibble() and by using dplyr to compute a summary table from the posPsy_wide data).

#> # A tibble: 4 x 7
#>   intervention mn_cesd_0 mn_cesd_1 mn_cesd_2 mn_cesd_3 mn_cesd_4 mn_cesd_5
#>          <dbl>     <dbl>     <dbl>     <dbl>     <dbl>     <dbl>     <dbl>
#> 1            1      15.1      15.3      13.6      12        11.2      13.5
#> 2            2      16.2      14.6      11.4      12.5      13.4      14.6
#> 3            3      16.1      12.3      14.8      13.9      14.9      13  
#> 4            4      12.8       9.9       9.5       9.1       7.7      10.2
#> # A tibble: 24 x 3
#>    intervention key       mean_cesd
#>           <dbl> <chr>         <dbl>
#>  1            1 mn_cesd_0      15.1
#>  2            2 mn_cesd_0      16.2
#>  3            3 mn_cesd_0      16.1
#>  4            4 mn_cesd_0      12.8
#>  5            1 mn_cesd_1      15.3
#>  6            2 mn_cesd_1      14.6
#>  7            3 mn_cesd_1      12.3
#>  8            4 mn_cesd_1       9.9
#>  9            1 mn_cesd_2      13.6
#> 10            2 mn_cesd_2      11.4
#> # ... with 14 more rows
…
Re-create one of the original tibbles (either my_tbl or my_tbl_2) and use tidyr to transform it into the long format of my_tbl_3.

my_tbl_3 <- my_tbl_2 %>% 
  gather(key = "key", value = "mean_cesd", mn_cesd_0:mn_cesd_5) %>%
  separate(key, c("mn", "cesd", "occasion"), sep = "_") %>%
  select(occasion, intervention, mean_cesd)
# my_tbl_3

# Change some variable types:
my_tbl_3$occasion     <- as.integer(my_tbl_3$occasion)    # as integer
my_tbl_3$intervention <- as.factor(my_tbl_3$intervention) # as factor

my_tbl_3
#> # A tibble: 24 x 3
#>    occasion intervention mean_cesd
#>       <int> <fct>            <dbl>
#>  1        0 1                 15.1
#>  2        0 2                 16.2
#>  3        0 3                 16.1
#>  4        0 4                 12.8
#>  5        1 1                 15.3
#>  6        1 2                 14.6
#>  7        1 3                 12.3
#>  8        1 4                  9.9
#>  9        2 1                 13.6
#> 10        2 2                 11.4
#> # ... with 14 more rows
…
# Step by step: 
as_tibble(mtcars)  # 32 x 11
#> # A tibble: 32 x 11
#>      mpg   cyl  disp    hp  drat    wt  qsec    vs    am  gear  carb
#>  * <dbl> <dbl> <dbl> <dbl> <dbl> <dbl> <dbl> <dbl> <dbl> <dbl> <dbl>
#>  1  21       6  160    110  3.9   2.62  16.5     0     1     4     4
#>  2  21       6  160    110  3.9   2.88  17.0     0     1     4     4
#>  3  22.8     4  108     93  3.85  2.32  18.6     1     1     4     1
#>  4  21.4     6  258    110  3.08  3.22  19.4     1     0     3     1
#>  5  18.7     8  360    175  3.15  3.44  17.0     0     0     3     2
#>  6  18.1     6  225    105  2.76  3.46  20.2     1     0     3     1
#>  7  14.3     8  360    245  3.21  3.57  15.8     0     0     3     4
#>  8  24.4     4  147.    62  3.69  3.19  20       1     0     4     2
#>  9  22.8     4  141.    95  3.92  3.15  22.9     1     0     4     2
#> 10  19.2     6  168.   123  3.92  3.44  18.3     1     0     4     4
#> # ... with 22 more rows
…
Exercise Z:

False positive psychology

# Load csv-data files from online links:
falsePosPsy_all <- readr::read_csv(file = "http://rpository.com/ds4psy/data/falsePosPsy_all.csv")

# Check: 
dim(falsePosPsy_all)  # 78 x 19 
#> [1] 78 19

falsePosPsy_all
#> # A tibble: 78 x 19
#>    study    ID  aged aged365 female   dad   mom potato when64 kalimba cond 
#>    <dbl> <dbl> <dbl>   <dbl>  <dbl> <dbl> <dbl>  <dbl>  <dbl>   <dbl> <chr>
#>  1     1     1  6765    18.5      0    49    45      0      0       1 cont…
#>  2     1     2  7715    21.1      1    63    62      0      1       0 64   
#>  3     1     3  7630    20.9      0    61    59      0      1       0 64   
#>  4     1     4  7543    20.7      0    54    51      0      0       1 cont…
#>  5     1     5  7849    21.5      0    47    43      0      1       0 64   
#>  6     1     6  7581    20.8      1    49    50      0      1       0 64   
#>  7     1     7  7534    20.6      1    56    55      0      0       1 cont…
#>  8     1     8  6678    18.3      1    45    45      0      1       0 64   
#>  9     1     9  6970    19.1      0    53    51      1      0       0 pota…
#> 10     1    10  7681    21.0      0    53    51      0      1       0 64   
#> # ... with 68 more rows, and 8 more variables: root <dbl>, bird <dbl>,
#> #   political <dbl>, quarterback <dbl>, olddays <dbl>, feelold <dbl>,
#> #   computer <dbl>, diner <dbl>
…
