Essential commands (ds4psy)
…
rename renames variables (columns) and keeps others;

transmute computes new variables (columns) and drops existing ones;

sample_n and sample_frac draw random samples of cases (rows).

Commands and examples

We save the dplyr::starwars data as a tibble sw and use it to illustrate the essential dplyr commands.

library(tidyverse)
sw <- dplyr::starwars

sw  # => A tibble: 87 rows (individuals) x 13 columns (variables)
#> # A tibble: 87 x 13
#>                  name height  mass    hair_color  skin_color eye_color
#>                 <chr>  <int> <dbl>         <chr>       <chr>     <chr>
#>  1     Luke Skywalker    172    77         blond        fair      blue
#>  2              C-3PO    167    75          <NA>        gold    yellow
#>  3              R2-D2     96    32          <NA> white, blue       red
#>  4        Darth Vader    202   136          none       white    yellow
#>  5        Leia Organa    150    49         brown       light     brown
#>  6          Owen Lars    178   120   brown, grey       light      blue
#>  7 Beru Whitesun lars    165    75         brown       light      blue
#>  8              R5-D4     97    32          <NA>  white, red       red
#>  9  Biggs Darklighter    183    84         black       light     brown
#> 10     Obi-Wan Kenobi    182    77 auburn, white        fair blue-gray
#> # ... with 77 more rows, and 7 more variables: birth_year <dbl>,
#> #   gender <chr>, homeworld <chr>, species <chr>, films <list>,
#> #   vehicles <list>, starships <list>

Practice: How many sw variables (columns) are there and of which type are they? How many missing (NA) values are there?

1. arrange to sort rows

Using arrange sorts cases (rows) by putting specific variables (columns) in specific orders (e.g., ascending or descending):

# Sort rows alphabetically (by name):
arrange(sw, name)
#> # A tibble: 87 x 13
#>                   name height  mass hair_color          skin_color
#>                  <chr>  <int> <dbl>      <chr>               <chr>
#>  1              Ackbar    180    83       none        brown mottle
#>  2          Adi Gallia    184    50       none                dark
#>  3    Anakin Skywalker    188    84      blond                fair
#>  4        Arvel Crynyd     NA    NA      brown                fair
#>  5         Ayla Secura    178    55       none                blue
#>  6 Bail Prestor Organa    191    NA      black                 tan
#>  7       Barriss Offee    166    50      black              yellow
#>  8                 BB8     NA    NA       none                none
#>  9      Ben Quadinaros    163    65       none grey, green, yellow
#> 10  Beru Whitesun lars    165    75      brown               light
#> # ... with 77 more rows, and 8 more variables: eye_color <chr>,
#> #   birth_year <dbl>, gender <chr>, homeworld <chr>, species <chr>,
#> #   films <list>, vehicles <list>, starships <list>

# The same command using the pipe:
sw %>%           # Note: %>% is NOT + (used in ggplot) 
  arrange(name) 
#> # A tibble: 87 x 13
#>                   name height  mass hair_color          skin_color
#>                  <chr>  <int> <dbl>      <chr>               <chr>
#>  1              Ackbar    180    83       none        brown mottle
#>  2          Adi Gallia    184    50       none                dark
#>  3    Anakin Skywalker    188    84      blond                fair
#>  4        Arvel Crynyd     NA    NA      brown                fair
#>  5         Ayla Secura    178    55       none                blue
#>  6 Bail Prestor Organa    191    NA      black                 tan
#>  7       Barriss Offee    166    50      black              yellow
#>  8                 BB8     NA    NA       none                none
#>  9      Ben Quadinaros    163    65       none grey, green, yellow
#> 10  Beru Whitesun lars    165    75      brown               light
#> # ... with 77 more rows, and 8 more variables: eye_color <chr>,
#> #   birth_year <dbl>, gender <chr>, homeworld <chr>, species <chr>,
#> #   films <list>, vehicles <list>, starships <list>

# Sort rows in descending order:
sw %>% 
  arrange(desc(name)) 
#> # A tibble: 87 x 13
#>                     name height  mass   hair_color          skin_color
#>                    <chr>  <int> <dbl>        <chr>               <chr>
#>  1            Zam Wesell    168    55       blonde fair, green, yellow
#>  2                  Yoda     66    17        white               green
#>  3           Yarael Poof    264    NA         none               white
#>  4        Wilhuff Tarkin    180    NA auburn, grey                fair
#>  5 Wicket Systri Warrick     88    20        brown               brown
#>  6        Wedge Antilles    170    77        brown                fair
#>  7                 Watto    137    NA        black          blue, grey
#>  8            Wat Tambor    193    48         none         green, grey
#>  9            Tion Medon    206    80         none                grey
#> 10               Taun We    213    NA         none                grey
#> # ... with 77 more rows, and 8 more variables: eye_color <chr>,
#> #   birth_year <dbl>, gender <chr>, homeworld <chr>, species <chr>,
#> #   films <list>, vehicles <list>, starships <list>

# Sort by multiple variables:
sw %>% 
  arrange(eye_color, gender, desc(height))
#> # A tibble: 87 x 13
#>          name height  mass hair_color       skin_color eye_color
#>         <chr>  <int> <dbl>      <chr>            <chr>     <chr>
#>  1    Taun We    213    NA       none             grey     black
#>  2   Shaak Ti    178    57       none red, blue, white     black
#>  3    Lama Su    229    88       none             grey     black
#>  4 Tion Medon    206    80       none             grey     black
#>  5  Kit Fisto    196    87       none            green     black
#>  6   Plo Koon    188    80       none           orange     black
#>  7     Greedo    173    74       <NA>            green     black
#>  8  Nien Nunb    160    68       none             grey     black
#>  9    Gasgano    122    NA       none      white, blue     black
#> 10        BB8     NA    NA       none             none     black
#> # ... with 77 more rows, and 7 more variables: birth_year <dbl>,
#> #   gender <chr>, homeworld <chr>, species <chr>, films <list>,
#> #   vehicles <list>, starships <list>
…
All basic dplyr commands can be called as verb(data, ...) or – using the pipe from magrittr – as data %>% verb(...) (see vignette("magrittr") for details).

Variable names are unquoted.

The order of variable names (x, y, ...) specifies the order or priority of operations (first by x, then by y, etc.).

Practice: Arrange the sw data in different ways, combining multiple variables and (ascending and descending) orders. Where are cases containing NA values in sorted variables placed?

2. filter to select rows

Using filter selects cases (rows) by logical conditions. It keeps all rows for which the conditions are TRUE and drops all rows for which the conditions are FALSE or NA.

# Filter to keep all humans:
filter(sw, species == "Human")
#> # A tibble: 35 x 13
#>                  name height  mass    hair_color skin_color eye_color
#>                 <chr>  <int> <dbl>         <chr>      <chr>     <chr>
#>  1     Luke Skywalker    172    77         blond       fair      blue
#>  2        Darth Vader    202   136          none      white    yellow
#>  3        Leia Organa    150    49         brown      light     brown
#>  4          Owen Lars    178   120   brown, grey      light      blue
#>  5 Beru Whitesun lars    165    75         brown      light      blue
#>  6  Biggs Darklighter    183    84         black      light     brown
#>  7     Obi-Wan Kenobi    182    77 auburn, white       fair blue-gray
#>  8   Anakin Skywalker    188    84         blond       fair      blue
#>  9     Wilhuff Tarkin    180    NA  auburn, grey       fair      blue
#> 10           Han Solo    180    80         brown       fair     brown
#> # ... with 25 more rows, and 7 more variables: birth_year <dbl>,
#> #   gender <chr>, homeworld <chr>, species <chr>, films <list>,
#> #   vehicles <list>, starships <list>

# The same command using the pipe:
sw %>%           # Note: %>% is NOT + (used in ggplot) 
  filter(species == "Human")
#> # A tibble: 35 x 13
#>                  name height  mass    hair_color skin_color eye_color
#>                 <chr>  <int> <dbl>         <chr>      <chr>     <chr>
#>  1     Luke Skywalker    172    77         blond       fair      blue
#>  2        Darth Vader    202   136          none      white    yellow
#>  3        Leia Organa    150    49         brown      light     brown
#>  4          Owen Lars    178   120   brown, grey      light      blue
#>  5 Beru Whitesun lars    165    75         brown      light      blue
#>  6  Biggs Darklighter    183    84         black      light     brown
#>  7     Obi-Wan Kenobi    182    77 auburn, white       fair blue-gray
#>  8   Anakin Skywalker    188    84         blond       fair      blue
#>  9     Wilhuff Tarkin    180    NA  auburn, grey       fair      blue
#> 10           Han Solo    180    80         brown       fair     brown
#> # ... with 25 more rows, and 7 more variables: birth_year <dbl>,
#> #   gender <chr>, homeworld <chr>, species <chr>, films <list>,
#> #   vehicles <list>, starships <list>
…
# Filter cases with existing (non-NA) values on specific variables:
sw %>%
  filter(!is.na(mass), !is.na(birth_year))
#> # A tibble: 36 x 13
#>                  name height  mass    hair_color  skin_color eye_color
#>                 <chr>  <int> <dbl>         <chr>       <chr>     <chr>
#>  1     Luke Skywalker    172    77         blond        fair      blue
#>  2              C-3PO    167    75          <NA>        gold    yellow
#>  3              R2-D2     96    32          <NA> white, blue       red
#>  4        Darth Vader    202   136          none       white    yellow
#>  5        Leia Organa    150    49         brown       light     brown
#>  6          Owen Lars    178   120   brown, grey       light      blue
#>  7 Beru Whitesun lars    165    75         brown       light      blue
#>  8  Biggs Darklighter    183    84         black       light     brown
#>  9     Obi-Wan Kenobi    182    77 auburn, white        fair blue-gray
#> 10   Anakin Skywalker    188    84         blond        fair      blue
#> # ... with 26 more rows, and 7 more variables: birth_year <dbl>,
#> #   gender <chr>, homeworld <chr>, species <chr>, films <list>,
#> #   vehicles <list>, starships <list>
…
which individual with blond hair and blue eyes has an unknown mass?

of which species are individuals that are over 2m tall and have brown hair?

which individuals from Tatooine are not male (but may be NA)?

which individuals are neither male nor female OR heavier than 130kg?

3. select to select columns

Using select selects variables (columns) by their names or numbers:

# Select 4 specific variables (columns) of sw:
select(sw, name, species, birth_year, gender)
#> # A tibble: 87 x 4
#>                  name species birth_year gender
#>                 <chr>   <chr>      <dbl>  <chr>
#>  1     Luke Skywalker   Human       19.0   male
#>  2              C-3PO   Droid      112.0   <NA>
#>  3              R2-D2   Droid       33.0   <NA>
#>  4        Darth Vader   Human       41.9   male
#>  5        Leia Organa   Human       19.0 female
#>  6          Owen Lars   Human       52.0   male
#>  7 Beru Whitesun lars   Human       47.0 female
#>  8              R5-D4   Droid         NA   <NA>
#>  9  Biggs Darklighter   Human       24.0   male
#> 10     Obi-Wan Kenobi   Human       57.0   male
#> # ... with 77 more rows

# The same when using the pipe:
sw %>%           # Note: %>% is NOT + (used in ggplot) 
  select(name, species, birth_year, gender)
#> # A tibble: 87 x 4
#>                  name species birth_year gender
#>                 <chr>   <chr>      <dbl>  <chr>
#>  1     Luke Skywalker   Human       19.0   male
#>  2              C-3PO   Droid      112.0   <NA>
#>  3              R2-D2   Droid       33.0   <NA>
#>  4        Darth Vader   Human       41.9   male
#>  5        Leia Organa   Human       19.0 female
#>  6          Owen Lars   Human       52.0   male
#>  7 Beru Whitesun lars   Human       47.0 female
#>  8              R5-D4   Droid         NA   <NA>
#>  9  Biggs Darklighter   Human       24.0   male
#> 10     Obi-Wan Kenobi   Human       57.0   male
#> # ... with 77 more rows

# The same when providing a vector of variable names: 
sw %>%
  select(c(name, species, birth_year, gender)) 
#> # A tibble: 87 x 4
#>                  name species birth_year gender
#>                 <chr>   <chr>      <dbl>  <chr>
#>  1     Luke Skywalker   Human       19.0   male
#>  2              C-3PO   Droid      112.0   <NA>
#>  3              R2-D2   Droid       33.0   <NA>
#>  4        Darth Vader   Human       41.9   male
#>  5        Leia Organa   Human       19.0 female
#>  6          Owen Lars   Human       52.0   male
#>  7 Beru Whitesun lars   Human       47.0 female
#>  8              R5-D4   Droid         NA   <NA>
#>  9  Biggs Darklighter   Human       24.0   male
#> 10     Obi-Wan Kenobi   Human       57.0   male
#> # ... with 77 more rows

# The same when providing column numbers:
sw %>%
  select(1, 10, 7, 8) 
#> # A tibble: 87 x 4
#>                  name species birth_year gender
#>                 <chr>   <chr>      <dbl>  <chr>
#>  1     Luke Skywalker   Human       19.0   male
#>  2              C-3PO   Droid      112.0   <NA>
#>  3              R2-D2   Droid       33.0   <NA>
#>  4        Darth Vader   Human       41.9   male
#>  5        Leia Organa   Human       19.0 female
#>  6          Owen Lars   Human       52.0   male
#>  7 Beru Whitesun lars   Human       47.0 female
#>  8              R5-D4   Droid         NA   <NA>
#>  9  Biggs Darklighter   Human       24.0   male
#> 10     Obi-Wan Kenobi   Human       57.0   male
#> # ... with 77 more rows

# The same when providing a vector of column numbers: 
sw %>%
  select(c(1, 10, 7, 8)) 
#> # A tibble: 87 x 4
#>                  name species birth_year gender
#>                 <chr>   <chr>      <dbl>  <chr>
#>  1     Luke Skywalker   Human       19.0   male
#>  2              C-3PO   Droid      112.0   <NA>
#>  3              R2-D2   Droid       33.0   <NA>
#>  4        Darth Vader   Human       41.9   male
#>  5        Leia Organa   Human       19.0 female
#>  6          Owen Lars   Human       52.0   male
#>  7 Beru Whitesun lars   Human       47.0 female
#>  8              R5-D4   Droid         NA   <NA>
#>  9  Biggs Darklighter   Human       24.0   male
#> 10     Obi-Wan Kenobi   Human       57.0   male
#> # ... with 77 more rows

# Select ranges of variables with ":":
sw %>%
  select(name:mass, films:starships)
#> # A tibble: 87 x 6
#>                  name height  mass     films  vehicles starships
#>                 <chr>  <int> <dbl>    <list>    <list>    <list>
#>  1     Luke Skywalker    172    77 <chr [5]> <chr [2]> <chr [2]>
#>  2              C-3PO    167    75 <chr [6]> <chr [0]> <chr [0]>
#>  3              R2-D2     96    32 <chr [7]> <chr [0]> <chr [0]>
#>  4        Darth Vader    202   136 <chr [4]> <chr [0]> <chr [1]>
#>  5        Leia Organa    150    49 <chr [5]> <chr [1]> <chr [0]>
#>  6          Owen Lars    178   120 <chr [3]> <chr [0]> <chr [0]>
#>  7 Beru Whitesun lars    165    75 <chr [3]> <chr [0]> <chr [0]>
#>  8              R5-D4     97    32 <chr [1]> <chr [0]> <chr [0]>
#>  9  Biggs Darklighter    183    84 <chr [1]> <chr [0]> <chr [1]>
#> 10     Obi-Wan Kenobi    182    77 <chr [6]> <chr [1]> <chr [5]>
#> # ... with 77 more rows

# Select to re-order variables (columns) with everything():
sw %>%
  select(species, name, gender, everything())
#> # A tibble: 87 x 13
#>    species               name gender height  mass    hair_color
#>      <chr>              <chr>  <chr>  <int> <dbl>         <chr>
#>  1   Human     Luke Skywalker   male    172    77         blond
#>  2   Droid              C-3PO   <NA>    167    75          <NA>
#>  3   Droid              R2-D2   <NA>     96    32          <NA>
#>  4   Human        Darth Vader   male    202   136          none
#>  5   Human        Leia Organa female    150    49         brown
#>  6   Human          Owen Lars   male    178   120   brown, grey
#>  7   Human Beru Whitesun lars female    165    75         brown
#>  8   Droid              R5-D4   <NA>     97    32          <NA>
#>  9   Human  Biggs Darklighter   male    183    84         black
#> 10   Human     Obi-Wan Kenobi   male    182    77 auburn, white
#> # ... with 77 more rows, and 7 more variables: skin_color <chr>,
#> #   eye_color <chr>, birth_year <dbl>, homeworld <chr>, films <list>,
#> #   vehicles <list>, starships <list>

# Select variables with helper functions:
sw %>%
  select(starts_with("s"))
#> # A tibble: 87 x 3
#>     skin_color species starships
#>          <chr>   <chr>    <list>
#>  1        fair   Human <chr [2]>
#>  2        gold   Droid <chr [0]>
#>  3 white, blue   Droid <chr [0]>
#>  4       white   Human <chr [1]>
#>  5       light   Human <chr [0]>
#>  6       light   Human <chr [0]>
#>  7       light   Human <chr [0]>
#>  8  white, red   Droid <chr [0]>
#>  9       light   Human <chr [1]>
#> 10        fair   Human <chr [5]>
#> # ... with 77 more rows

sw %>%
  select(ends_with("s"))
#> # A tibble: 87 x 5
#>     mass species     films  vehicles starships
#>    <dbl>   <chr>    <list>    <list>    <list>
#>  1    77   Human <chr [5]> <chr [2]> <chr [2]>
#>  2    75   Droid <chr [6]> <chr [0]> <chr [0]>
#>  3    32   Droid <chr [7]> <chr [0]> <chr [0]>
#>  4   136   Human <chr [4]> <chr [0]> <chr [1]>
#>  5    49   Human <chr [5]> <chr [1]> <chr [0]>
#>  6   120   Human <chr [3]> <chr [0]> <chr [0]>
#>  7    75   Human <chr [3]> <chr [0]> <chr [0]>
#>  8    32   Droid <chr [1]> <chr [0]> <chr [0]>
#>  9    84   Human <chr [1]> <chr [0]> <chr [1]>
#> 10    77   Human <chr [6]> <chr [1]> <chr [5]>
#> # ... with 77 more rows

sw %>%
  select(contains("_"))
#> # A tibble: 87 x 4
#>       hair_color  skin_color eye_color birth_year
#>            <chr>       <chr>     <chr>      <dbl>
#>  1         blond        fair      blue       19.0
#>  2          <NA>        gold    yellow      112.0
#>  3          <NA> white, blue       red       33.0
#>  4          none       white    yellow       41.9
#>  5         brown       light     brown       19.0
#>  6   brown, grey       light      blue       52.0
#>  7         brown       light      blue       47.0
#>  8          <NA>  white, red       red         NA
#>  9         black       light     brown       24.0
#> 10 auburn, white        fair blue-gray       57.0
#> # ... with 77 more rows

sw %>%
  select(matches("or"))
#> # A tibble: 87 x 4
#>       hair_color  skin_color eye_color homeworld
#>            <chr>       <chr>     <chr>     <chr>
#>  1         blond        fair      blue  Tatooine
#>  2          <NA>        gold    yellow  Tatooine
#>  3          <NA> white, blue       red     Naboo
#>  4          none       white    yellow  Tatooine
#>  5         brown       light     brown  Alderaan
#>  6   brown, grey       light      blue  Tatooine
#>  7         brown       light      blue  Tatooine
#>  8          <NA>  white, red       red  Tatooine
#>  9         black       light     brown  Tatooine
#> 10 auburn, white        fair blue-gray   Stewjon
#> # ... with 77 more rows
…
