Test Questions (ds4psy)
…
Note: The chapter does primarily introduce visualizations (with ggplot), but not yet data transformations (with dplyr).

Using mtcars data

## Data to use:
?mtcars
# mtcars

## (0) Convert into a tibble: 
df <- as_tibble(rownames_to_column(mtcars, var = "model"))
df$cyl <- factor(df$cyl)
df$am <- factor(df$am)
df

# A tibble: 32 x 12
               model   mpg    cyl  disp    hp  drat    wt  qsec    vs
               <chr> <dbl> <fctr> <dbl> <dbl> <dbl> <dbl> <dbl> <dbl>
 1         Mazda RX4  21.0      6 160.0   110  3.90 2.620 16.46     0
 2     Mazda RX4 Wag  21.0      6 160.0   110  3.90 2.875 17.02     0
 3        Datsun 710  22.8      4 108.0    93  3.85 2.320 18.61     1
 4    Hornet 4 Drive  21.4      6 258.0   110  3.08 3.215 19.44     1
 5 Hornet Sportabout  18.7      8 360.0   175  3.15 3.440 17.02     0
 6           Valiant  18.1      6 225.0   105  2.76 3.460 20.22     1
 7        Duster 360  14.3      8 360.0   245  3.21 3.570 15.84     0
 8         Merc 240D  24.4      4 146.7    62  3.69 3.190 20.00     1
 9          Merc 230  22.8      4 140.8    95  3.92 3.150 22.90     1
10          Merc 280  19.2      6 167.6   123  3.92 3.440 18.30     1
# ... with 22 more rows, and 3 more variables: am <fctr>, gear <dbl>,
#   carb <dbl>
…
Tasks

A. Create 2 variables for both types of outliers.

B. Identify people who are outliers relative to both the entire poulation and to their own sex.

C. Identify people (men and women) who are not outliers relative to the entire population, but are outliers relative to their own sex. (As men are taller than women on average, these are tall women and small men.)

D. Visualize the overall distribution of height, its distribution by sex, and the raw data values for both types of outliers (by sex).

Solution

To identify both groups, we first need to compute 2 outlier variables: One for the entire population and one for each subgroup (based on people’s sex).

# A tibble: 1,000 x 9
# Groups:   sex [2]
      id    sex height mn_height sd_height out_height mn_sex_height
   <chr> <fctr>  <dbl>     <dbl>     <dbl>      <lgl>         <dbl>
 1   p.1      0    162   175.051   12.5487      FALSE      169.1203
 2   p.2      1    170   175.051   12.5487      FALSE      181.1501
 3   p.3      0    180   175.051   12.5487      FALSE      169.1203
 4   p.4      1    189   175.051   12.5487      FALSE      181.1501
 5   p.5      1    164   175.051   12.5487      FALSE      181.1501
 6   p.6      0    168   175.051   12.5487      FALSE      169.1203
 7   p.7      1    171   175.051   12.5487      FALSE      181.1501
 8   p.8      1    158   175.051   12.5487      FALSE      181.1501
 9   p.9      1    183   175.051   12.5487      FALSE      181.1501
10  p.10      0    168   175.051   12.5487      FALSE      169.1203
# ... with 990 more rows, and 2 more variables: sd_sex_height <dbl>,
#   out_sex_height <lgl>
…
 7 p.311      0    141   175.051   12.5487       TRUE      169.1203
 8 p.355      1    207   175.051   12.5487       TRUE      181.1501
 9 p.366      1    209   175.051   12.5487       TRUE      181.1501
10 p.505      0    141   175.051   12.5487       TRUE      169.1203
11 p.508      1    208   175.051   12.5487       TRUE      181.1501
12 p.592      0    143   175.051   12.5487       TRUE      169.1203
13 p.626      0    204   175.051   12.5487       TRUE      169.1203
14 p.690      0    145   175.051   12.5487       TRUE      169.1203
15 p.692      1    204   175.051   12.5487       TRUE      181.1501
16 p.693      1    205   175.051   12.5487       TRUE      181.1501
17 p.717      0    145   175.051   12.5487       TRUE      169.1203
18 p.824      1    218   175.051   12.5487       TRUE      181.1501
# ... with 2 more variables: sd_sex_height <dbl>, out_sex_height <lgl>

# A tibble: 25 x 9
# Groups:   sex [2]
      id    sex height mn_height sd_height out_height mn_sex_height
   <chr> <fctr>  <dbl>     <dbl>     <dbl>      <lgl>         <dbl>
 1   p.8      1    158   175.051   12.5487      FALSE      181.1501
 2  p.49      0    196   175.051   12.5487      FALSE      169.1203
 3 p.176      1    159   175.051   12.5487      FALSE      181.1501
 4 p.190      1    158   175.051   12.5487      FALSE      181.1501
 5 p.196      0    196   175.051   12.5487      FALSE      169.1203
 6 p.243      0    195   175.051   12.5487      FALSE      169.1203
 7 p.246      1    157   175.051   12.5487      FALSE      181.1501
 8 p.247      0    199   175.051   12.5487      FALSE      169.1203
 9 p.308      0    193   175.051   12.5487      FALSE      169.1203
10 p.342      0    199   175.051   12.5487      FALSE      169.1203
# ... with 15 more rows, and 2 more variables: sd_sex_height <dbl>,
#   out_sex_height <lgl>
…
